{
  "$id": "isAccessibleForFree.json",
  "$schema": "http://json-schema.org/draft-07/schema#",
  "title": "Status of free accessibility",
  "description": "States if a ressource is free to access and to use. This also can be a ressource without an open license",
  "type": "boolean"
}
