{
  "$id": "isBasedOn.json",
  "$schema": "http://json-schema.org/draft-07/schema#",
  "title": "Based on",
  "description": "Resources the described learning resources derived from.",
  "type": "array",
  "items": {
    "type": "object",
    "properties": {
      "type": {
        "$ref": "type.json"
      },
      "id": {
        "$ref": "id.json"
      },
      "name": {
        "$ref": "name.json"
      },
      "creator": {
        "$ref": "creator.json"
      },
      "license": {
        "$ref": "license.json"
      },
      "provider": {
        "$ref": "provider.json"
      }
    },
    "required": ["name"]
  }
}
