{
  "$id": "isPartOf.json",
  "$schema": "http://json-schema.org/draft-07/schema#",
  "title": "Is part of",
  "description": "Resources the described learning resource is part of.",
  "type": "array",
  "items": {
    "type": "object",
    "properties": {
      "id": {
        "$ref": "id.json"
      },
      "type": {
        "$ref": "type.json"
      },
      "name": {
        "$ref": "name.json"
      }
    },
    "required": ["id"]
  }
}
