{
  "$id": "teaches.json",
  "$schema": "http://json-schema.org/draft-07/schema#",
  "title": "Teaches",
  "description": "The item being described is intended to help a person learn the competency or learning outcome defined by the referenced term.",
  "type": "array",
  "items": {
    "type": "object",
    "properties": {
      "id": {
        "type": "string",
        "format": "uri"
      },
      "prefLabel": {
        "title": "The preferred label of the concept",
        "description": "A localized string",
        "$ref": "localizedString.json"
      }
    },
    "required": ["id"]
  }
}
